module got.kr/go

require (
	github.com/dgrijalva/jwt-go v3.2.0+incompatible // indirect
	github.com/labstack/echo v3.3.5+incompatible
	github.com/labstack/gommon v0.2.8
	github.com/mattn/go-colorable v0.0.9 // indirect
	github.com/mattn/go-isatty v0.0.4 // indirect
	github.com/valyala/bytebufferpool v1.0.0 // indirect
	github.com/valyala/fasttemplate v0.0.0-20170224212429-dcecefd839c4 // indirect
	golang.org/x/crypto v0.0.0-20181127143415-eb0de9b17e85 // indirect
)
